INDEX VERSION 1.3+D:\Users\ZERNUX\Documents\CEI\Algoritmos 2\proyecto-algoritmos\.metadata\.plugins\org.eclipse.wst.jsdt.core\indexes
1393845542.index
430422944.index
4209725672.index
2032466047.index
2877130843.index
2375828755.index
2496537164.index
